Sender: LSF System <lsfadmin@eu-g1-026-1>
Subject: Job 223251981: <./job.sh> in cluster <euler> Exited

Job <./job.sh> was submitted from host <eu-login-42> by user <kelmich> in cluster <euler> at Mon Jun 27 13:17:34 2022
Job was executed on host(s) <48*eu-g1-026-1>, in queue <normal.24h>, as user <kelmich> in cluster <euler> at Mon Jun 27 13:17:58 2022
</cluster/home/kelmich> was used as the home directory.
</cluster/home/kelmich/bsc/Arnold_Fork_Join> was used as the working directory.
Started at Mon Jun 27 13:17:58 2022
Terminated at Tue Jun 28 13:17:52 2022
Results reported at Tue Jun 28 13:17:52 2022

Your job looked like:

------------------------------------------------------------
# LSBATCH: User input
./job.sh
------------------------------------------------------------

TERM_RUNLIMIT: job killed after reaching LSF run time limit.
Exited with exit code 140.

Resource usage summary:

    CPU time :                                   4139542.00 sec.
    Max Memory :                                 3694 MB
    Average Memory :                             3689.84 MB
    Total Requested Memory :                     49152.00 MB
    Delta Memory :                               45458.00 MB
    Max Swap :                                   -
    Max Processes :                              52
    Max Threads :                                204
    Run time :                                   86405 sec.
    Turnaround time :                            86418 sec.

The output (if any) follows:


 submitted Open MPI job
hostname
eu-g1-026-1
-674.500000
-677.500000
-674.000000
-674.000000
-677.000000
-674.000000
-673.500000
-677.000000
-673.500000
-676.500000
-675.000000
-673.500000
-674.000000
-676.500000
-675.500000
-673.000000
-674.500000
-676.000000
-675.500000
-677.000000
-673.500000
-675.500000
-672.000000
-674.000000
-677.000000
-675.500000
-677.000000
-673.500000
-675.000000
-674.500000
-676.000000
-677.500000
-674.500000
-675.000000
-678.000000
-677.000000
-677.000000
-674.500000
-675.500000
-676.000000
-674.000000
-675.500000
-674.000000
-676.500000
-674.000000
-677.500000
-674.500000
-672.500000
-673.000000
-673.500000
-675.000000
-676.000000
-676.000000
-674.500000
-675.500000
-675.000000
-677.500000
-676.000000
-674.500000
-674.500000
-675.500000
-677.000000
-677.000000
-676.500000
-673.000000
-675.500000
-672.500000
-676.500000
-674.500000
-677.500000
-676.500000
-679.500000
-675.000000
-675.000000
-673.500000
-674.000000
-677.000000
-673.500000
-675.500000
-674.500000
-675.500000
-677.500000
-672.500000
-679.000000
-674.500000
-674.500000
-674.500000
-673.500000
-679.000000
-675.000000
-677.000000
-676.500000
-676.000000
-673.500000
-673.500000
-673.000000
-674.500000
-672.500000
-676.000000
-676.500000
-677.500000
-675.500000
-674.500000
-675.000000
-677.500000
-676.500000
-675.500000
-673.500000
-677.000000
-675.500000
-674.500000
-676.500000
-674.000000
-675.500000
-674.000000
-676.000000
-673.500000
-677.000000
-678.500000
-676.500000
-675.500000
-677.000000
-674.000000
-680.000000
-677.000000
-673.500000
-676.000000
-674.000000
-676.500000
-676.000000
-675.000000
-674.500000
-675.500000
-671.000000
-676.000000
-678.000000
-677.000000
-675.500000
-675.000000
-673.000000
-676.500000
-675.000000
-674.000000
-674.000000
-675.500000
-675.000000
-671.500000
-675.000000
-675.000000
-674.500000
-674.500000
-676.000000
-674.000000
-675.500000
-673.500000
-676.500000
-676.500000
-673.500000
-673.500000
-679.000000
-675.000000
-673.000000
-676.500000
-677.500000
-677.000000
-675.500000
-675.500000
-672.500000
-674.500000
-673.500000
-677.500000
-678.000000
-672.000000
-676.500000
-676.000000
-674.500000
-674.500000
-676.000000
-674.500000
-674.000000
-674.000000
-674.000000
-675.500000
-676.500000
-675.500000
-674.000000
-674.500000
-675.500000
-676.500000
-677.000000
-674.000000
-674.500000
-674.000000
-675.000000
-672.500000
-679.000000
-674.000000
-676.500000
-675.500000
-676.000000
-676.500000
-674.000000
-678.000000
-678.500000
-674.500000
-675.500000
-672.500000
-675.500000
-673.500000
-674.500000
-674.000000
-677.500000
-676.000000
-677.000000
-674.500000
-675.000000
-675.000000
-681.000000
-675.500000
-673.500000
-675.000000
-673.000000
-673.500000
-673.000000
-677.000000
-673.000000
-674.500000
-675.000000
-674.000000
-676.000000
-677.000000
-671.500000
-674.500000
-676.500000
-676.000000
-673.500000
-673.500000
-676.500000
-676.000000
-671.000000
-676.500000
-678.000000
-677.000000
-677.500000
-676.000000
-674.000000
-676.000000
-675.000000
-676.500000
-674.000000
-672.500000
-677.500000
-676.500000
-671.500000
-675.500000
-675.000000
-675.000000
-678.000000
-674.500000
-675.000000
-675.500000
-677.000000
-674.000000
-675.000000
-675.000000
-675.500000
-676.000000
-675.500000
-677.500000
-675.500000
-675.500000
-674.500000
-675.000000
-675.500000
-674.500000
-677.500000
-674.000000
-677.500000
-675.000000
-675.500000
-676.000000
-673.500000
-674.000000
-674.500000
-675.500000
-675.500000
-674.000000
-675.000000
-676.000000
-674.500000
-675.500000
-674.000000
-675.500000
-674.500000
-674.000000
-676.000000
-678.500000
-677.000000
-677.000000
-675.000000
-677.000000
-675.500000
-674.500000
-676.500000
-674.000000
-675.000000
-675.000000
-676.500000
-673.500000
-674.500000
-673.500000
-676.000000
-676.500000
-674.000000
-674.500000
-675.500000
-677.000000
-674.500000
-678.000000
-677.000000
-675.000000
-678.500000
-676.000000
-677.500000
-677.000000
-674.000000
-673.500000
-674.000000
-677.000000
-673.000000
-674.000000
-679.000000
-677.000000
-675.000000
-674.000000
-676.000000
-673.500000
-676.500000
-673.500000
-676.500000
-679.500000
-672.500000
-677.000000
-673.500000
-675.500000
-677.000000
-676.500000
-672.000000
-676.500000
-674.000000
-675.000000
-675.000000
-674.500000
-673.000000
-677.000000
-671.500000
-676.500000
-675.500000
-675.000000
-675.500000
-676.000000
-673.000000
-677.000000
-674.000000
-676.000000
-678.000000
-675.500000
-674.500000
-676.500000
-673.000000
-679.000000
-679.500000
-677.500000
-678.000000
-675.000000
-672.000000
-673.500000
-673.000000
-674.500000
-675.500000
-679.000000
-675.500000
-675.500000
-677.000000
-675.000000
-673.000000
-674.500000
-674.000000
-674.500000
-677.500000
-676.500000
-676.000000
-677.000000
-673.000000
-673.000000
-675.000000
-681.000000
-674.000000
-674.000000
-677.500000
-673.500000
-675.500000
-675.000000
-673.000000
-675.500000
-676.000000
-676.500000
-676.500000
-674.500000
-675.500000
-675.500000
-676.000000
-673.000000
-676.500000
-677.000000
-674.500000
-673.500000
-673.500000
-675.000000
-675.500000
-671.500000
-676.000000
-675.500000
-674.000000
-676.000000
-674.000000
-677.500000
-675.500000
-676.000000
-678.000000
-675.500000
-676.500000
-675.000000
-675.500000
-676.000000
-676.000000
-679.000000
-676.500000
-674.500000
-673.000000
-674.500000
-678.000000
-675.500000
-676.500000
-678.000000
-674.000000
-682.000000
-674.500000
-677.500000
-678.000000
-673.000000
-673.000000
-676.000000
-675.000000
-678.000000
-674.000000
-672.000000
-672.500000
-673.000000
-675.500000
-677.500000
-673.500000
-675.000000
-676.500000
-672.500000
-673.000000
-673.500000
-675.500000
-677.500000
-673.000000
-677.500000
-674.500000
-674.500000
-673.500000
-675.500000
-677.000000
-678.500000
-676.000000
-674.500000
-675.000000
-675.500000
-674.500000
-677.000000
-679.000000
-671.500000
-675.000000
-674.500000
-677.000000
-674.500000
-675.000000
-676.000000
-675.000000
-676.500000
-675.000000
-676.000000
-675.500000
-673.000000
-673.000000
-675.000000
-674.000000
-673.000000
-674.000000
-675.500000
-675.500000
-674.000000
-674.000000
-676.000000
-674.000000
-674.000000
-674.500000
-673.500000
-677.500000
-676.500000
-678.500000
-673.500000
-675.500000
-673.000000
-675.500000
-676.000000
-678.500000
-672.000000
-680.000000
-676.000000
-675.500000
-675.000000
-677.500000
-676.500000
-673.500000
-673.500000
-674.000000
-673.500000
-675.500000
-679.000000
-675.500000
-673.500000
-674.500000
-674.500000
-683.500000
-674.000000
-674.000000
-672.500000
-677.500000
-676.000000
-680.000000
-677.000000
-674.000000
-673.500000
-675.500000
-674.000000
-674.500000
-675.000000
-675.500000
-675.500000
-674.500000
-676.000000
-674.000000
-675.500000
-674.000000
-673.500000
-675.500000
-675.500000
-675.500000
-674.500000
-676.500000
-676.500000
-674.500000
-673.000000
-676.500000
-675.500000
-675.000000
-673.500000
-676.500000
-676.500000
-675.000000
-679.000000
-675.500000
-674.500000
-676.000000
-677.000000
-674.500000
-674.000000
-677.500000
-677.000000
-673.500000
-674.000000
-678.000000
-674.000000
-673.000000
-674.500000
-674.500000
-679.000000
-676.000000
-674.500000
-677.500000
-675.500000
-677.000000
-674.500000
-676.000000
-674.000000
-675.000000
-675.500000
-673.500000
-674.000000
-673.500000
-677.500000
-676.000000
-676.500000
-675.000000
-675.500000
-677.000000
-673.500000
-674.000000
-673.500000
-678.500000
-672.500000
-676.500000
-674.000000
-673.000000
-676.500000
-676.500000
-674.000000
-675.500000
-673.500000
-675.000000
-675.000000
-677.500000
-673.500000
-676.000000
-675.500000
-675.000000
-675.500000
-675.000000
-674.500000
-676.000000
-675.000000
-674.000000
-674.500000
-674.000000
-676.500000
-675.500000
-674.500000
-677.000000
-675.500000
-674.000000
-672.500000
-677.500000
-678.000000
-677.000000
-675.000000
-675.000000
-676.500000
-674.000000
-677.000000
-676.000000
-674.500000
-675.500000
-676.000000
-679.500000
-673.000000
-674.500000
-678.000000
-674.500000
-677.000000
-678.000000
-678.000000
-676.500000
-675.000000
-674.000000
-675.000000
-672.000000
-676.000000
-673.500000
-676.000000
-672.000000
-676.000000
-673.500000
-674.000000
-676.500000
-675.500000
-673.000000
-674.500000
-675.500000
-673.500000
-674.500000
-673.000000
-673.500000
-674.000000
-677.000000
-677.000000
-672.500000
-674.500000
-678.000000
-675.500000
-672.000000
-676.500000
-674.500000
-679.000000
-674.000000
-676.000000
-674.000000
-674.000000
-675.500000
-674.000000
-675.500000
-674.000000
-675.500000
-676.500000
-674.000000
-677.500000
-678.000000
-673.500000
-675.500000
-678.500000
-680.000000
-674.500000
-673.500000
-675.500000
-673.000000
-675.000000
-677.000000
-675.000000
-676.000000
-676.500000
-676.000000
-674.000000
-672.500000
-674.500000
-675.500000
-674.000000
-674.500000
-674.500000
-674.000000
-675.500000
-677.000000
-675.000000
-674.500000
-675.000000
-675.000000
-676.500000
-676.000000
-675.500000
-675.500000
-677.500000
-679.500000
-674.000000
-679.000000
-677.500000
-673.500000
-674.000000
-675.500000
-675.000000
-677.500000
-674.500000
-679.000000
-673.500000
-673.500000
-674.000000
-673.500000
-676.000000
-677.000000
-674.500000
-673.000000
-675.000000
-676.500000
-676.000000
-674.000000
-673.000000
-676.000000
-675.000000
-678.000000
-675.000000
-678.500000
-673.500000
-675.500000
-672.000000
-676.000000
-674.500000
-673.000000
-673.000000
-674.000000
-676.000000
-676.500000
-675.000000
-680.500000
-677.000000
-675.000000
-678.500000
-677.000000
-675.000000
-673.500000
-673.500000
-676.000000
-674.500000
-674.500000
-674.500000
-676.500000
-677.500000
-676.000000
-674.000000
-676.500000
-676.500000
-669.500000
-675.000000
-679.000000
-676.000000
-672.500000
-674.500000
-675.000000
-673.500000
-676.000000
-674.500000
-674.000000
-676.000000
-676.500000
-674.000000
-676.000000
-677.500000
-676.500000
-671.500000
-676.500000
-674.000000
-679.000000
-674.000000
-676.500000
-674.500000
-675.500000
-674.500000
-677.000000
-673.000000
-676.500000
-674.000000
-674.500000
-675.500000
-676.500000
-680.000000
-676.500000
-677.000000
-676.500000
-679.500000
-678.500000
-673.500000
-672.500000
-674.000000
-675.000000
-676.500000
-672.500000
-675.500000
-672.500000
-675.000000
-673.500000
-676.000000
-674.000000
-676.000000
-676.500000
-672.500000
-676.000000
-676.000000
-676.000000
-673.000000
-675.500000
-675.500000
-674.500000
-676.000000
-673.000000
-673.000000
-678.500000
-676.000000
-673.500000
-677.500000
-676.500000
-674.000000
-678.500000
-674.500000
-675.500000
-679.000000
-673.500000
-671.500000
-673.500000
-674.500000
-676.000000
-678.000000
-674.000000
-677.000000
-676.000000
-677.000000
-675.500000
-675.500000
-676.500000
-677.000000
-675.000000
-676.500000
-676.000000
-672.000000
-676.500000
-675.000000
-676.500000
-674.000000
-676.500000
-672.500000
-677.000000
-672.500000
-674.500000
-674.000000
-674.000000
-677.500000
-678.500000
-677.000000
-673.500000
-673.500000
-675.500000
-677.500000
-677.500000
-674.500000
-676.000000
-673.500000
-675.500000
-674.500000
-676.500000
-675.500000
-673.500000
-674.500000
-677.500000
-673.500000
-676.000000
-675.000000
-672.000000
-675.500000
-673.500000
-673.000000
-677.000000
-677.000000
-678.000000
-675.500000
-676.000000
-675.000000
-678.000000
-676.000000
-678.500000
-675.500000
-675.000000
-675.500000
-674.000000
-678.500000
-676.500000
-677.000000
-674.000000
-678.000000
-675.000000
-674.500000
-675.000000
-674.000000
-672.500000
-673.500000
-676.500000
-675.500000
-673.500000
-676.500000
-676.500000
-677.000000
-674.000000
-676.000000
-674.500000
-676.500000
-673.500000
-674.500000
-674.000000
-678.000000
-677.500000
-675.500000
-678.500000
-674.500000
-673.500000
-675.500000
-674.500000
-674.500000
-673.500000
-676.500000
-675.000000
-676.500000
-674.000000
-676.000000
-675.000000
-673.500000
-677.000000
-678.500000
-673.500000
-675.500000
-672.500000
-675.500000
-677.000000
-674.500000
-678.000000
-673.000000
-674.000000
-674.500000
-675.000000
-675.000000
-672.000000
-675.000000
-676.000000
-676.500000
-678.500000
-673.500000
-675.000000
-675.000000
-674.500000
-675.000000
-673.000000
-673.000000
-675.000000
-674.000000
-675.000000
-677.000000
-675.000000
-673.000000
-676.000000
-674.500000
-674.500000
-677.000000
-675.000000
-675.000000
-674.500000
-676.000000
-673.000000
-674.500000
-679.500000
-676.500000
-673.500000
-674.000000
-675.500000
-677.500000
-677.000000
-672.500000
-675.500000
-676.000000
-675.500000
-675.000000
-674.000000
-676.500000
-674.000000
-677.500000
-674.500000
-678.000000
-672.500000
-673.000000
-673.000000
-675.500000
-674.500000
-674.500000
-673.000000
-678.000000
-674.500000
-678.500000
-676.000000
-677.000000
-675.000000
-676.000000
-675.000000
-677.000000
-674.500000
-672.500000
-676.500000
-677.000000
-674.500000
-675.000000
-673.000000
-673.000000
-677.000000
mpirun: Forwarding signal 12 to job
User defined signal 2
--------------------------------------------------------------------------
Primary job  terminated normally, but 1 process returned
a non-zero exit code. Per user-direction, the job has been aborted.
--------------------------------------------------------------------------
--------------------------------------------------------------------------
mpirun noticed that process rank 1 with PID 0 on node eu-g1-026-1 exited on signal 12 (User defined signal 2).
--------------------------------------------------------------------------
