Sender: LSF System <lsfadmin@eu-g1-012-2>
Subject: Job 232480987: <./job.sh> in cluster <euler> Exited

Job <./job.sh> was submitted from host <eu-login-03> by user <kelmich> in cluster <euler> at Tue Sep 27 07:34:13 2022
Job was executed on host(s) <48*eu-g1-012-2>, in queue <normal.24h>, as user <kelmich> in cluster <euler> at Fri Sep 30 07:10:12 2022
</cluster/home/kelmich> was used as the home directory.
</cluster/home/kelmich/bsc/used_in_paper/Arnold_Fork_Join> was used as the working directory.
Started at Fri Sep 30 07:10:12 2022
Terminated at Sat Oct  1 07:10:20 2022
Results reported at Sat Oct  1 07:10:20 2022

Your job looked like:

------------------------------------------------------------
# LSBATCH: User input
./job.sh
------------------------------------------------------------

TERM_RUNLIMIT: job killed after reaching LSF run time limit.
Exited with exit code 140.

Resource usage summary:

    CPU time :                                   4138567.00 sec.
    Max Memory :                                 3706 MB
    Average Memory :                             3701.33 MB
    Total Requested Memory :                     49152.00 MB
    Delta Memory :                               45446.00 MB
    Max Swap :                                   -
    Max Processes :                              52
    Max Threads :                                204
    Run time :                                   86418 sec.
    Turnaround time :                            344167 sec.

The output (if any) follows:


 submitted Open MPI job
hostname
eu-g1-012-2
5, 6, 5, 6, 5, 7, 5, 6, 3, 5, 2, 7, 2, 7, 2, 
2, 0, 2, 0, 2, 6, 2, 0, 1, 0, 6, 4, 9, 4, 6, 
5, 6, 5, 6, 5, 0, 5, 6, 10, 10, 2, 10, 7, 10, 7, 
2, 0, 3, 0, 3, 6, 3, 0, 9, 4, 9, 4, 9, 4, 9, 
5, 8, 3, 8, 1, 8, 1, 8, 10, 8, 1, 10, 7, 8, 10, 
3, 0, 1, 0, 3, 10, 9, 4, 9, 4, 9, 4, 9, 4, 9, 
5, 8, 3, 8, 1, 8, 1, 10, 1, 10, 7, 10, 7, 10, 7, 
3, 0, 1, 0, 3, 10, 9, 8, 9, 4, 9, 4, 9, 4, 2, 
5, 8, 3, 8, 1, 8, 1, 10, 1, 10, 1, 8, 10, 7, 7, 
3, 0, 1, 0, 3, 10, 9, 8, 9, 4, 9, 4, 9, 4, 2, 
5, 8, 3, 8, 1, 8, 1, 10, 1, 10, 7, 10, 2, 7, 7, 
3, 0, 3, 0, 3, 10, 9, 4, 9, 4, 9, 4, 6, 4, 2, 
5, 1, 5, 8, 1, 8, 1, 8, 2, 7, 2, 7, 2, 7, 7, 
6, 0, 3, 0, 3, 0, 3, 0, 6, 6, 6, 6, 6, 4, 2, 
5, 6, 5, 6, 5, 6, 5, 6, 5, 2, 7, 2, 7, 2, 7, 
Score: -1232.000000

-1232.000000
5, 5, 3, 8, 3, 8, 3, 5, 5, 6, 5, 6, 2, 6, 5, 
6, 0, 1, 0, 1, 0, 1, 0, 6, 0, 2, 0, 5, 6, 6, 
5, 8, 3, 8, 3, 8, 3, 8, 5, 6, 5, 0, 2, 0, 5, 
3, 1, 3, 1, 3, 1, 3, 0, 3, 0, 2, 6, 5, 6, 2, 
8, 0, 8, 0, 8, 0, 8, 1, 5, 6, 5, 0, 2, 0, 5, 
3, 1, 3, 1, 3, 1, 3, 0, 3, 0, 5, 6, 5, 6, 2, 
8, 0, 10, 8, 3, 8, 10, 1, 10, 1, 10, 0, 2, 0, 5, 
2, 4, 9, 1, 3, 1, 9, 4, 9, 4, 9, 4, 2, 6, 2, 
7, 7, 10, 8, 3, 8, 10, 8, 7, 10, 7, 10, 7, 6, 7, 
2, 4, 9, 1, 3, 1, 9, 4, 9, 4, 9, 4, 9, 4, 2, 
7, 7, 10, 8, 10, 8, 10, 10, 7, 10, 7, 10, 7, 6, 7, 
2, 4, 9, 1, 9, 1, 9, 4, 9, 4, 9, 4, 9, 4, 2, 
7, 6, 10, 4, 10, 8, 10, 8, 10, 8, 10, 1, 10, 7, 7, 
6, 6, 9, 1, 9, 4, 9, 4, 9, 4, 9, 4, 9, 4, 2, 
5, 6, 5, 10, 6, 7, 2, 7, 2, 7, 2, 7, 2, 7, 7, 
Score: -1234.000000

-1234.000000
-1231.000000
-1232.000000
-1234.000000
-1233.000000
-1232.000000
5, 7, 2, 7, 2, 7, 2, 10, 5, 6, 5, 6, 5, 2, 5, 
6, 6, 4, 6, 4, 6, 4, 0, 1, 0, 10, 0, 6, 0, 6, 
2, 2, 7, 2, 7, 9, 10, 9, 10, 9, 1, 3, 5, 2, 5, 
7, 4, 7, 4, 10, 4, 8, 1, 8, 4, 8, 0, 6, 0, 6, 
2, 9, 10, 9, 10, 9, 10, 9, 10, 9, 1, 3, 5, 3, 5, 
7, 4, 8, 1, 8, 1, 8, 1, 8, 6, 8, 0, 8, 0, 6, 
2, 9, 10, 9, 8, 3, 8, 3, 3, 1, 3, 1, 3, 1, 5, 
7, 4, 10, 4, 1, 3, 0, 1, 8, 0, 8, 0, 8, 0, 3, 
2, 9, 7, 9, 8, 3, 8, 3, 3, 1, 3, 1, 3, 1, 5, 
7, 4, 10, 4, 8, 1, 8, 1, 8, 0, 8, 0, 8, 0, 6, 
2, 9, 7, 9, 10, 9, 10, 9, 10, 3, 5, 3, 5, 3, 5, 
7, 4, 10, 4, 10, 4, 1, 4, 1, 0, 1, 0, 6, 0, 6, 
2, 9, 7, 9, 7, 9, 10, 9, 10, 3, 5, 3, 5, 2, 5, 
7, 4, 10, 4, 10, 4, 7, 4, 6, 6, 0, 6, 6, 0, 6, 
2, 6, 7, 9, 7, 2, 7, 2, 7, 2, 5, 2, 5, 2, 5, 
Score: -1236.000000

-1236.000000
-1236.000000
-1229.000000
-1232.000000
-1232.000000
-1232.000000
-1231.000000
-1233.000000
-1230.000000
-1231.000000
-1232.000000
-1231.000000
-1232.000000
-1235.000000
-1233.000000
-1232.000000
-1236.000000
-1231.000000
-1232.000000
-1235.000000
-1230.000000
-1230.000000
-1232.000000
-1231.000000
-1228.000000
-1230.000000
-1229.000000
-1233.000000
-1236.000000
-1233.000000
-1229.000000
-1231.000000
-1230.000000
-1228.000000
-1231.000000
-1228.000000
-1231.000000
-1232.000000
-1228.000000
-1232.000000
-1228.000000
-1231.000000
-1230.000000
-1232.000000
-1231.000000
-1231.000000
-1228.000000
-1234.000000
-1230.000000
-1227.000000
-1229.000000
-1229.000000
-1231.000000
-1230.000000
-1228.000000
-1231.000000
-1233.000000
-1228.000000
-1234.000000
-1228.000000
-1232.000000
-1231.000000
-1229.000000
-1232.000000
-1231.000000
-1230.000000
-1233.000000
-1230.000000
-1233.000000
-1230.000000
-1228.000000
-1232.000000
-1232.000000
-1230.000000
-1229.000000
-1231.000000
5, 2, 5, 3, 5, 3, 10, 9, 7, 9, 7, 9, 7, 2, 7, 
6, 0, 6, 0, 8, 0, 8, 4, 10, 4, 10, 4, 10, 4, 6, 
5, 3, 5, 3, 5, 3, 1, 9, 1, 9, 1, 9, 8, 9, 7, 
6, 0, 1, 0, 8, 0, 8, 10, 8, 10, 10, 4, 10, 4, 10, 
5, 3, 5, 3, 1, 3, 1, 9, 1, 9, 1, 9, 8, 9, 7, 
6, 0, 8, 0, 8, 0, 8, 10, 8, 10, 8, 4, 1, 4, 10, 
5, 3, 1, 3, 1, 3, 1, 3, 1, 9, 1, 9, 10, 9, 7, 
6, 0, 8, 3, 8, 0, 8, 0, 8, 4, 10, 4, 1, 4, 10, 
5, 3, 1, 3, 1, 3, 5, 3, 10, 9, 8, 9, 10, 9, 2, 
6, 0, 8, 0, 8, 0, 1, 0, 1, 4, 10, 1, 8, 4, 7, 
5, 3, 5, 3, 5, 3, 10, 9, 10, 9, 8, 9, 10, 9, 2, 
6, 6, 0, 6, 0, 6, 6, 4, 7, 4, 7, 4, 7, 4, 7, 
5, 2, 5, 2, 5, 2, 7, 2, 7, 2, 7, 2, 2, 6, 2, 
6, 0, 6, 0, 6, 6, 6, 6, 4, 6, 6, 4, 7, 4, 7, 
5, 2, 5, 2, 5, 2, 7, 2, 7, 2, 7, 2, 7, 2, 2, 
Score: -1238.000000

-1238.000000
-1232.000000
-1230.000000
-1230.000000
-1231.000000
-1231.000000
-1232.000000
-1237.000000
-1236.000000
-1231.000000
-1229.000000
-1232.000000
-1232.000000
-1231.000000
-1232.000000
-1234.000000
-1234.000000
-1231.000000
-1230.000000
-1230.000000
-1232.000000
-1230.000000
-1229.000000
-1231.000000
-1234.000000
-1228.000000
-1230.000000
-1231.000000
-1231.000000
-1230.000000
-1229.000000
-1230.000000
-1232.000000
-1233.000000
-1232.000000
-1228.000000
-1235.000000
-1230.000000
-1229.000000
-1236.000000
-1232.000000
-1232.000000
-1229.000000
-1232.000000
-1230.000000
-1231.000000
-1234.000000
-1233.000000
-1230.000000
-1232.000000
-1230.000000
-1231.000000
-1234.000000
-1232.000000
-1231.000000
-1230.000000
-1230.000000
-1233.000000
-1233.000000
-1229.000000
-1231.000000
-1232.000000
-1232.000000
-1234.000000
-1235.000000
-1236.000000
-1229.000000
-1229.000000
-1232.000000
-1232.000000
-1231.000000
-1230.000000
-1228.000000
-1230.000000
-1232.000000
-1233.000000
-1235.000000
-1230.000000
-1232.000000
-1231.000000
-1229.000000
-1230.000000
-1230.000000
-1231.000000
-1229.000000
-1232.000000
-1230.000000
-1234.000000
-1230.000000
-1232.000000
-1232.000000
-1230.000000
-1232.000000
-1231.000000
-1234.000000
-1234.000000
-1229.000000
-1228.000000
-1227.000000
-1231.000000
-1232.000000
-1230.000000
-1232.000000
-1233.000000
-1229.000000
-1233.000000
-1234.000000
-1230.000000
-1235.000000
-1232.000000
-1231.000000
-1231.000000
-1231.000000
-1229.000000
-1227.000000
-1233.000000
-1232.000000
-1227.000000
-1234.000000
-1233.000000
-1231.000000
-1230.000000
-1230.000000
-1231.000000
-1236.000000
-1233.000000
-1229.000000
-1231.000000
-1234.000000
-1230.000000
-1229.000000
-1231.000000
-1236.000000
-1232.000000
-1232.000000
7, 6, 5, 6, 5, 6, 5, 6, 5, 6, 5, 6, 5, 6, 5, 
2, 6, 2, 0, 2, 0, 10, 0, 3, 0, 2, 0, 2, 0, 2, 
7, 6, 10, 4, 10, 4, 10, 1, 5, 6, 5, 6, 5, 6, 5, 
2, 4, 9, 1, 9, 1, 9, 0, 3, 0, 3, 0, 3, 0, 6, 
7, 7, 10, 8, 10, 8, 10, 8, 1, 8, 1, 8, 1, 8, 5, 
2, 4, 9, 1, 9, 1, 9, 0, 3, 3, 3, 0, 3, 0, 3, 
7, 7, 10, 8, 10, 8, 10, 8, 1, 8, 1, 8, 1, 8, 5, 
2, 4, 9, 4, 9, 4, 9, 4, 9, 10, 3, 3, 3, 0, 3, 
7, 6, 10, 1, 10, 8, 7, 10, 1, 8, 1, 8, 1, 8, 5, 
2, 4, 9, 4, 9, 4, 9, 4, 9, 10, 3, 3, 3, 0, 3, 
7, 7, 10, 8, 7, 10, 7, 10, 1, 8, 1, 8, 1, 8, 5, 
2, 4, 9, 4, 9, 4, 9, 4, 9, 0, 3, 0, 3, 0, 6, 
7, 7, 2, 7, 2, 7, 10, 8, 10, 1, 10, 1, 5, 6, 5, 
2, 6, 6, 4, 6, 4, 9, 4, 9, 4, 9, 0, 3, 0, 2, 
5, 7, 2, 7, 2, 7, 2, 7, 2, 7, 2, 6, 5, 6, 5, 
Score: -1242.000000

-1242.000000
-1232.000000
-1230.000000
-1231.000000
-1231.000000
-1229.000000
-1233.000000
-1230.000000
-1230.000000
-1232.000000
-1235.000000
-1229.000000
-1233.000000
-1231.000000
-1227.000000
-1231.000000
-1232.000000
-1230.000000
-1232.000000
-1232.000000
-1229.000000
-1231.000000
-1233.000000
-1233.000000
-1235.000000
-1230.000000
-1234.000000
-1231.000000
-1231.000000
-1232.000000
-1231.000000
-1233.000000
-1235.000000
-1232.000000
-1230.000000
-1231.000000
-1232.000000
-1233.000000
-1233.000000
-1231.000000
-1233.000000
-1229.000000
-1229.000000
-1231.000000
-1232.000000
-1234.000000
-1231.000000
-1233.000000
-1231.000000
-1231.000000
-1235.000000
-1234.000000
-1228.000000
-1231.000000
-1234.000000
-1233.000000
-1231.000000
-1234.000000
-1232.000000
-1229.000000
-1235.000000
-1233.000000
-1231.000000
-1232.000000
-1235.000000
-1234.000000
-1231.000000
-1230.000000
-1233.000000
-1232.000000
-1230.000000
-1230.000000
-1232.000000
-1234.000000
-1231.000000
-1230.000000
-1237.000000
-1231.000000
-1229.000000
-1229.000000
-1229.000000
-1229.000000
-1233.000000
-1232.000000
-1234.000000
-1230.000000
-1233.000000
-1232.000000
-1232.000000
-1232.000000
-1227.000000
-1231.000000
-1231.000000
-1231.000000
-1229.000000
-1233.000000
-1237.000000
-1232.000000
-1228.000000
-1233.000000
-1230.000000
-1233.000000
-1229.000000
-1230.000000
-1233.000000
-1231.000000
-1231.000000
-1231.000000
-1232.000000
-1233.000000
-1231.000000
-1234.000000
-1232.000000
-1230.000000
-1231.000000
-1230.000000
-1229.000000
-1233.000000
-1232.000000
-1231.000000
-1232.000000
-1230.000000
-1235.000000
-1231.000000
-1232.000000
-1232.000000
-1227.000000
-1229.000000
-1234.000000
-1233.000000
-1232.000000
-1232.000000
-1231.000000
-1232.000000
-1230.000000
-1231.000000
-1232.000000
-1232.000000
-1230.000000
-1233.000000
-1233.000000
-1229.000000
-1230.000000
-1231.000000
-1231.000000
-1228.000000
-1234.000000
-1232.000000
-1230.000000
-1230.000000
-1231.000000
-1228.000000
-1232.000000
-1230.000000
-1232.000000
-1232.000000
-1231.000000
-1235.000000
-1231.000000
-1229.000000
-1229.000000
-1234.000000
-1231.000000
-1236.000000
-1234.000000
-1233.000000
-1233.000000
-1230.000000
-1229.000000
-1231.000000
-1232.000000
-1234.000000
-1229.000000
-1228.000000
-1232.000000
-1233.000000
-1231.000000
-1232.000000
-1230.000000
-1231.000000
-1230.000000
-1232.000000
-1231.000000
-1232.000000
-1230.000000
-1230.000000
-1231.000000
-1238.000000
-1229.000000
-1228.000000
-1234.000000
-1234.000000
-1234.000000
-1231.000000
-1232.000000
-1232.000000
-1233.000000
-1231.000000
-1232.000000
-1231.000000
-1230.000000
-1231.000000
-1233.000000
-1232.000000
-1233.000000
-1232.000000
-1232.000000
-1237.000000
-1231.000000
-1231.000000
-1231.000000
-1229.000000
-1232.000000
-1232.000000
-1232.000000
-1230.000000
-1230.000000
-1236.000000
-1230.000000
-1233.000000
-1234.000000
-1236.000000
-1236.000000
-1229.000000
-1230.000000
-1237.000000
-1231.000000
-1231.000000
-1234.000000
-1232.000000
-1235.000000
-1231.000000
-1235.000000
-1232.000000
-1232.000000
-1232.000000
-1232.000000
-1233.000000
-1233.000000
-1229.000000
-1232.000000
-1232.000000
-1231.000000
-1233.000000
-1230.000000
-1238.000000
-1232.000000
-1232.000000
-1232.000000
-1232.000000
-1235.000000
-1228.000000
-1230.000000
-1232.000000
-1230.000000
-1228.000000
-1231.000000
-1231.000000
-1229.000000
-1229.000000
-1233.000000
-1228.000000
-1230.000000
-1229.000000
-1235.000000
-1233.000000
-1231.000000
-1232.000000
-1231.000000
-1232.000000
-1234.000000
-1232.000000
-1234.000000
-1232.000000
-1229.000000
-1230.000000
-1230.000000
-1235.000000
-1232.000000
-1231.000000
-1230.000000
-1231.000000
-1229.000000
-1231.000000
-1231.000000
-1232.000000
-1229.000000
-1232.000000
-1230.000000
-1230.000000
-1233.000000
-1235.000000
-1229.000000
-1229.000000
-1233.000000
-1230.000000
-1231.000000
-1230.000000
-1231.000000
-1232.000000
-1229.000000
-1231.000000
-1234.000000
-1234.000000
-1230.000000
-1230.000000
-1229.000000
-1228.000000
-1233.000000
-1235.000000
-1230.000000
-1233.000000
-1233.000000
-1231.000000
-1233.000000
-1230.000000
-1233.000000
-1232.000000
-1230.000000
-1238.000000
-1228.000000
-1234.000000
-1237.000000
-1231.000000
-1232.000000
-1239.000000
-1229.000000
-1231.000000
-1234.000000
-1231.000000
-1230.000000
-1229.000000
-1232.000000
-1230.000000
-1232.000000
-1234.000000
-1232.000000
-1231.000000
-1233.000000
-1232.000000
-1232.000000
-1231.000000
-1232.000000
-1229.000000
-1229.000000
-1229.000000
-1230.000000
-1234.000000
-1230.000000
-1235.000000
-1229.000000
-1234.000000
-1233.000000
-1230.000000
-1232.000000
-1231.000000
-1231.000000
-1230.000000
-1229.000000
-1235.000000
-1232.000000
-1229.000000
-1231.000000
-1230.000000
-1232.000000
-1230.000000
-1229.000000
-1233.000000
-1231.000000
-1233.000000
-1231.000000
-1230.000000
-1233.000000
-1235.000000
-1228.000000
-1229.000000
-1231.000000
-1229.000000
-1234.000000
-1228.000000
-1231.000000
-1231.000000
-1231.000000
-1235.000000
-1232.000000
-1230.000000
-1231.000000
-1229.000000
-1229.000000
-1235.000000
-1227.000000
-1230.000000
-1231.000000
-1232.000000
-1232.000000
-1231.000000
-1231.000000
-1229.000000
-1234.000000
-1230.000000
-1230.000000
-1231.000000
-1231.000000
-1228.000000
-1232.000000
-1232.000000
-1232.000000
-1231.000000
-1230.000000
-1232.000000
-1230.000000
-1237.000000
-1230.000000
-1233.000000
-1230.000000
-1231.000000
-1231.000000
-1234.000000
-1230.000000
-1231.000000
-1232.000000
-1234.000000
-1231.000000
-1231.000000
-1233.000000
-1232.000000
-1229.000000
-1230.000000
-1234.000000
-1231.000000
-1231.000000
-1232.000000
-1230.000000
-1233.000000
-1231.000000
-1231.000000
-1228.000000
-1233.000000
-1231.000000
-1230.000000
-1233.000000
-1231.000000
-1229.000000
-1228.000000
-1232.000000
-1229.000000
-1231.000000
-1231.000000
-1236.000000
-1232.000000
-1233.000000
-1236.000000
-1229.000000
-1230.000000
-1230.000000
-1230.000000
-1233.000000
-1234.000000
-1233.000000
-1231.000000
-1232.000000
-1231.000000
-1236.000000
-1232.000000
-1234.000000
-1231.000000
-1231.000000
-1234.000000
-1235.000000
-1230.000000
-1231.000000
-1230.000000
-1232.000000
-1235.000000
-1236.000000
-1230.000000
-1232.000000
-1231.000000
-1233.000000
-1234.000000
-1237.000000
-1231.000000
-1231.000000
-1233.000000
-1233.000000
-1233.000000
-1231.000000
-1238.000000
-1233.000000
-1231.000000
-1230.000000
-1231.000000
-1236.000000
-1231.000000
-1233.000000
-1233.000000
-1229.000000
-1230.000000
-1231.000000
-1232.000000
-1229.000000
-1228.000000
-1233.000000
-1232.000000
-1230.000000
-1230.000000
-1228.000000
-1231.000000
-1230.000000
-1234.000000
-1231.000000
-1233.000000
-1233.000000
-1230.000000
-1237.000000
-1233.000000
-1233.000000
-1231.000000
-1231.000000
-1228.000000
-1230.000000
-1229.000000
-1232.000000
-1231.000000
-1230.000000
-1233.000000
-1231.000000
-1232.000000
-1233.000000
-1234.000000
-1231.000000
-1232.000000
-1235.000000
-1235.000000
-1233.000000
-1234.000000
-1231.000000
-1232.000000
-1232.000000
-1231.000000
-1234.000000
-1229.000000
-1234.000000
-1235.000000
-1232.000000
-1232.000000
-1232.000000
-1234.000000
-1232.000000
-1229.000000
-1235.000000
-1231.000000
-1230.000000
-1228.000000
-1231.000000
-1233.000000
-1231.000000
-1231.000000
-1232.000000
-1230.000000
-1234.000000
-1230.000000
-1231.000000
-1229.000000
-1229.000000
-1229.000000
-1233.000000
-1231.000000
-1229.000000
-1235.000000
-1231.000000
-1231.000000
-1230.000000
-1233.000000
-1230.000000
-1233.000000
-1231.000000
-1231.000000
-1236.000000
-1231.000000
-1229.000000
-1232.000000
-1233.000000
-1230.000000
-1230.000000
-1235.000000
-1231.000000
-1231.000000
-1233.000000
-1237.000000
-1231.000000
-1231.000000
-1228.000000
-1230.000000
-1229.000000
-1231.000000
-1229.000000
-1231.000000
-1233.000000
-1234.000000
-1228.000000
-1231.000000
-1233.000000
-1232.000000
-1231.000000
-1228.000000
-1236.000000
-1232.000000
-1232.000000
-1229.000000
-1230.000000
-1235.000000
-1228.000000
-1231.000000
-1233.000000
-1235.000000
-1231.000000
-1237.000000
-1231.000000
-1231.000000
-1230.000000
-1231.000000
-1231.000000
-1228.000000
-1232.000000
-1231.000000
-1233.000000
-1231.000000
-1231.000000
-1231.000000
-1235.000000
-1227.000000
-1232.000000
-1234.000000
-1229.000000
-1233.000000
-1237.000000
-1229.000000
-1230.000000
-1232.000000
-1232.000000
-1229.000000
-1231.000000
-1229.000000
-1233.000000
-1232.000000
-1232.000000
-1230.000000
-1234.000000
-1230.000000
-1234.000000
-1231.000000
-1230.000000
-1230.000000
-1232.000000
-1232.000000
-1230.000000
-1232.000000
-1228.000000
-1231.000000
-1232.000000
-1233.000000
-1236.000000
-1228.000000
-1227.000000
-1231.000000
-1233.000000
-1233.000000
-1228.000000
-1232.000000
-1230.000000
-1233.000000
-1229.000000
-1234.000000
-1232.000000
-1234.000000
-1234.000000
-1232.000000
-1236.000000
-1230.000000
-1231.000000
-1234.000000
-1235.000000
-1232.000000
-1232.000000
-1232.000000
-1230.000000
-1232.000000
-1233.000000
-1229.000000
-1233.000000
-1228.000000
-1234.000000
-1231.000000
-1232.000000
-1233.000000
-1232.000000
-1230.000000
-1231.000000
-1228.000000
-1233.000000
-1228.000000
-1235.000000
-1234.000000
-1232.000000
-1231.000000
-1231.000000
-1232.000000
-1231.000000
-1230.000000
-1230.000000
-1228.000000
-1233.000000
-1232.000000
-1231.000000
-1233.000000
-1231.000000
-1231.000000
-1231.000000
-1233.000000
-1235.000000
-1233.000000
-1231.000000
-1233.000000
-1233.000000
-1230.000000
-1233.000000
-1233.000000
-1236.000000
-1231.000000
-1231.000000
-1234.000000
-1231.000000
-1226.000000
-1231.000000
-1230.000000
-1231.000000
-1231.000000
-1234.000000
-1229.000000
-1233.000000
-1233.000000
-1227.000000
-1232.000000
-1229.000000
-1231.000000
-1231.000000
-1231.000000
-1231.000000
-1234.000000
-1230.000000
-1231.000000
-1230.000000
-1229.000000
-1231.000000
-1232.000000
-1233.000000
-1233.000000
-1233.000000
-1231.000000
-1229.000000
-1231.000000
-1230.000000
-1231.000000
-1236.000000
-1230.000000
-1234.000000
-1230.000000
-1232.000000
-1229.000000
-1235.000000
-1233.000000
-1231.000000
-1237.000000
-1233.000000
-1233.000000
-1230.000000
-1238.000000
-1231.000000
-1230.000000
-1231.000000
-1231.000000
-1232.000000
-1229.000000
-1226.000000
-1232.000000
-1232.000000
-1232.000000
-1228.000000
-1230.000000
-1230.000000
-1231.000000
-1235.000000
-1231.000000
-1230.000000
-1233.000000
-1231.000000
-1233.000000
-1231.000000
-1229.000000
-1235.000000
-1231.000000
-1229.000000
-1230.000000
-1230.000000
-1234.000000
-1229.000000
-1233.000000
-1231.000000
-1228.000000
-1231.000000
-1230.000000
-1231.000000
mpirun: Forwarding signal 12 to job
User defined signal 2
--------------------------------------------------------------------------
Primary job  terminated normally, but 1 process returned
a non-zero exit code. Per user-direction, the job has been aborted.
--------------------------------------------------------------------------
--------------------------------------------------------------------------
mpirun noticed that process rank 29 with PID 0 on node eu-g1-012-2 exited on signal 12 (User defined signal 2).
--------------------------------------------------------------------------
