PARAMETER_ID: 3000, Score: 645.000000, Max Score: 680.000000, T0: 0.500000, K: 0.500000, NT: 50, NG: 5, Anneal: 2
PARAMETER_ID: 3000, Score: 639.000000, Max Score: 680.000000, T0: 0.500000, K: 0.500000, NT: 50, NG: 5, Anneal: 2
PARAMETER_ID: 3001, Score: 666.000000, Max Score: 680.000000, T0: 0.500000, K: 0.500000, NT: 50, NG: 55, Anneal: 2
PARAMETER_ID: 3001, Score: 663.000000, Max Score: 680.000000, T0: 0.500000, K: 0.500000, NT: 50, NG: 55, Anneal: 2
PARAMETER_ID: 3002, Score: 676.000000, Max Score: 680.000000, T0: 0.500000, K: 0.500000, NT: 50, NG: 105, Anneal: 2
PARAMETER_ID: 3002, Score: 669.500000, Max Score: 680.000000, T0: 0.500000, K: 0.500000, NT: 50, NG: 105, Anneal: 2
PARAMETER_ID: 3003, Score: 675.000000, Max Score: 680.000000, T0: 0.500000, K: 0.500000, NT: 50, NG: 155, Anneal: 2
PARAMETER_ID: 3003, Score: 673.000000, Max Score: 680.000000, T0: 0.500000, K: 0.500000, NT: 50, NG: 155, Anneal: 2
PARAMETER_ID: 3004, Score: 676.500000, Max Score: 680.000000, T0: 0.500000, K: 0.500000, NT: 50, NG: 205, Anneal: 2
PARAMETER_ID: 3004, Score: 671.000000, Max Score: 680.000000, T0: 0.500000, K: 0.500000, NT: 50, NG: 205, Anneal: 2
PARAMETER_ID: 3005, Score: 675.000000, Max Score: 680.000000, T0: 0.500000, K: 0.500000, NT: 50, NG: 255, Anneal: 2
PARAMETER_ID: 3005, Score: 679.500000, Max Score: 680.000000, T0: 0.500000, K: 0.500000, NT: 50, NG: 255, Anneal: 2
PARAMETER_ID: 3006, Score: 675.500000, Max Score: 680.000000, T0: 0.500000, K: 0.500000, NT: 50, NG: 305, Anneal: 2
PARAMETER_ID: 3006, Score: 678.000000, Max Score: 680.000000, T0: 0.500000, K: 0.500000, NT: 50, NG: 305, Anneal: 2
PARAMETER_ID: 3007, Score: 673.500000, Max Score: 680.000000, T0: 0.500000, K: 0.500000, NT: 50, NG: 355, Anneal: 2
PARAMETER_ID: 3007, Score: 678.500000, Max Score: 680.000000, T0: 0.500000, K: 0.500000, NT: 50, NG: 355, Anneal: 2
PARAMETER_ID: 3008, Score: 674.500000, Max Score: 680.000000, T0: 0.500000, K: 0.500000, NT: 50, NG: 405, Anneal: 2
PARAMETER_ID: 3008, Score: 672.000000, Max Score: 680.000000, T0: 0.500000, K: 0.500000, NT: 50, NG: 405, Anneal: 2
PARAMETER_ID: 3009, Score: 674.000000, Max Score: 680.000000, T0: 0.500000, K: 0.500000, NT: 50, NG: 455, Anneal: 2
PARAMETER_ID: 3009, Score: 678.500000, Max Score: 680.000000, T0: 0.500000, K: 0.500000, NT: 50, NG: 455, Anneal: 2
PARAMETER_ID: 3010, Score: 650.000000, Max Score: 680.000000, T0: 0.500000, K: 0.500000, NT: 450, NG: 5, Anneal: 2
PARAMETER_ID: 3010, Score: 645.000000, Max Score: 680.000000, T0: 0.500000, K: 0.500000, NT: 450, NG: 5, Anneal: 2
PARAMETER_ID: 3011, Score: 666.500000, Max Score: 680.000000, T0: 0.500000, K: 0.500000, NT: 450, NG: 55, Anneal: 2
PARAMETER_ID: 3011, Score: 669.000000, Max Score: 680.000000, T0: 0.500000, K: 0.500000, NT: 450, NG: 55, Anneal: 2
PARAMETER_ID: 3012, Score: 669.000000, Max Score: 680.000000, T0: 0.500000, K: 0.500000, NT: 450, NG: 105, Anneal: 2
PARAMETER_ID: 4000, Score: 668.000000, Max Score: 680.000000, T0: 0.800000, K: 0.850000, NT: 50, NG: 5, Anneal: 2
PARAMETER_ID: 4000, Score: 652.000000, Max Score: 680.000000, T0: 0.800000, K: 0.850000, NT: 50, NG: 5, Anneal: 2
PARAMETER_ID: 4001, Score: 672.000000, Max Score: 680.000000, T0: 0.800000, K: 0.850000, NT: 50, NG: 55, Anneal: 2
PARAMETER_ID: 4001, Score: 673.000000, Max Score: 680.000000, T0: 0.800000, K: 0.850000, NT: 50, NG: 55, Anneal: 2
PARAMETER_ID: 4002, Score: 683.000000, Max Score: 683.000000, T0: 0.800000, K: 0.850000, NT: 50, NG: 105, Anneal: 2
PARAMETER_ID: 4002, Score: 680.000000, Max Score: 683.000000, T0: 0.800000, K: 0.850000, NT: 50, NG: 105, Anneal: 2
PARAMETER_ID: 4003, Score: 681.500000, Max Score: 683.000000, T0: 0.800000, K: 0.850000, NT: 50, NG: 155, Anneal: 2
PARAMETER_ID: 4003, Score: 682.000000, Max Score: 683.000000, T0: 0.800000, K: 0.850000, NT: 50, NG: 155, Anneal: 2
PARAMETER_ID: 4004, Score: 680.500000, Max Score: 683.000000, T0: 0.800000, K: 0.850000, NT: 50, NG: 205, Anneal: 2
PARAMETER_ID: 4004, Score: 681.500000, Max Score: 683.000000, T0: 0.800000, K: 0.850000, NT: 50, NG: 205, Anneal: 2
PARAMETER_ID: 4005, Score: 680.000000, Max Score: 683.000000, T0: 0.800000, K: 0.850000, NT: 50, NG: 255, Anneal: 2
PARAMETER_ID: 4005, Score: 681.500000, Max Score: 683.000000, T0: 0.800000, K: 0.850000, NT: 50, NG: 255, Anneal: 2
PARAMETER_ID: 4006, Score: 684.000000, Max Score: 684.000000, T0: 0.800000, K: 0.850000, NT: 50, NG: 305, Anneal: 2
PARAMETER_ID: 4006, Score: 682.500000, Max Score: 684.000000, T0: 0.800000, K: 0.850000, NT: 50, NG: 305, Anneal: 2
PARAMETER_ID: 4007, Score: 682.000000, Max Score: 684.000000, T0: 0.800000, K: 0.850000, NT: 50, NG: 355, Anneal: 2
PARAMETER_ID: 4007, Score: 680.500000, Max Score: 684.000000, T0: 0.800000, K: 0.850000, NT: 50, NG: 355, Anneal: 2
PARAMETER_ID: 4008, Score: 681.500000, Max Score: 684.000000, T0: 0.800000, K: 0.850000, NT: 50, NG: 405, Anneal: 2
PARAMETER_ID: 4008, Score: 683.000000, Max Score: 684.000000, T0: 0.800000, K: 0.850000, NT: 50, NG: 405, Anneal: 2
PARAMETER_ID: 4009, Score: 681.500000, Max Score: 684.000000, T0: 0.800000, K: 0.850000, NT: 50, NG: 455, Anneal: 2
PARAMETER_ID: 4009, Score: 678.500000, Max Score: 684.000000, T0: 0.800000, K: 0.850000, NT: 50, NG: 455, Anneal: 2
PARAMETER_ID: 4010, Score: 664.000000, Max Score: 684.000000, T0: 0.800000, K: 0.850000, NT: 450, NG: 5, Anneal: 2
PARAMETER_ID: 4010, Score: 673.000000, Max Score: 684.000000, T0: 0.800000, K: 0.850000, NT: 450, NG: 5, Anneal: 2
PARAMETER_ID: 4011, Score: 676.500000, Max Score: 684.000000, T0: 0.800000, K: 0.850000, NT: 450, NG: 55, Anneal: 2
PARAMETER_ID: 4011, Score: 679.500000, Max Score: 684.000000, T0: 0.800000, K: 0.850000, NT: 450, NG: 55, Anneal: 2
PARAMETER_ID: 4012, Score: 682.000000, Max Score: 684.000000, T0: 0.800000, K: 0.850000, NT: 450, NG: 105, Anneal: 2
PARAMETER_ID: 4012, Score: 683.000000, Max Score: 684.000000, T0: 0.800000, K: 0.850000, NT: 450, NG: 105, Anneal: 2
PARAMETER_ID: 4013, Score: 676.000000, Max Score: 684.000000, T0: 0.800000, K: 0.850000, NT: 450, NG: 155, Anneal: 2
PARAMETER_ID: 4013, Score: 682.000000, Max Score: 684.000000, T0: 0.800000, K: 0.850000, NT: 450, NG: 155, Anneal: 2
PARAMETER_ID: 4014, Score: 676.000000, Max Score: 684.000000, T0: 0.800000, K: 0.850000, NT: 450, NG: 205, Anneal: 2
